<?xml version="1.0" encoding="UTF-8" standalone="no"?>
<!-- Generator: Adobe Illustrator 22.1.0, SVG Export Plug-In . SVG Version: 6.00 Build 0)  -->

<svg
   xmlns:dc="http://purl.org/dc/elements/1.1/"
   xmlns:cc="http://creativecommons.org/ns#"
   xmlns:rdf="http://www.w3.org/1999/02/22-rdf-syntax-ns#"
   xmlns:svg="http://www.w3.org/2000/svg"
   xmlns="http://www.w3.org/2000/svg"
   xmlns:sodipodi="http://sodipodi.sourceforge.net/DTD/sodipodi-0.dtd"
   xmlns:inkscape="http://www.inkscape.org/namespaces/inkscape"
   version="1.1"
   id="Warstwa_1"
   x="0px"
   y="0px"
   viewBox="0 0 772.4 726.1"
   style="enable-background:new 0 0 772.4 726.1;"
   xml:space="preserve"
   sodipodi:docname="bg-form.svg"
   inkscape:version="0.92.2 2405546, 2018-03-11"><metadata
   id="metadata22"><rdf:RDF><cc:Work
       rdf:about=""><dc:format>image/svg+xml</dc:format><dc:type
         rdf:resource="http://purl.org/dc/dcmitype/StillImage" /><dc:title>bg-form</dc:title></cc:Work></rdf:RDF></metadata><defs
   id="defs20" /><sodipodi:namedview
   pagecolor="#ffffff"
   bordercolor="#666666"
   borderopacity="1"
   objecttolerance="10"
   gridtolerance="10"
   guidetolerance="10"
   inkscape:pageopacity="0"
   inkscape:pageshadow="2"
   inkscape:window-width="1366"
   inkscape:window-height="713"
   id="namedview18"
   showgrid="false"
   inkscape:zoom="0.32502411"
   inkscape:cx="-166.06671"
   inkscape:cy="363.04999"
   inkscape:window-x="0"
   inkscape:window-y="27"
   inkscape:window-maximized="1"
   inkscape:current-layer="Warstwa_1" />
<style
   type="text/css"
   id="style2">
	.st0{fill:url(#SVGID_1_);}
	.st1{fill:#16191C;}
</style>
<linearGradient
   id="SVGID_1_"
   gradientUnits="userSpaceOnUse"
   x1="0.1"
   y1="362.79"
   x2="772"
   y2="362.79"
   gradientTransform="matrix(1 0 0 -1 0 725.89)">
	<stop
   offset="0"
   style="stop-color:#1A272B"
   id="stop4" />
	<stop
   offset="1"
   style="stop-color:#16191C"
   id="stop6" />
</linearGradient>
<polygon
   class="st0"
   points="96.4,0 0.1,266.7 112.5,726.2 772,726.2 772,220.3 772,219.3 772,1.2 "
   id="polygon9" />
<polyline
   class="st1"
   points="772,1.2 96.4,0 0.1,266.7 772,220.3 "
   id="polyline11"
   style="fill:#00ff57;fill-opacity:1" />
<title
   id="title13">bg-form</title>
<polyline
   class="st1"
   points="771.9,726.1 112.4,726.1 772.4,563.3 "
   id="polyline15" />
</svg>