<?xml version="1.0" encoding="UTF-8" standalone="no"?>
<!-- Generator: Adobe Illustrator 22.1.0, SVG Export Plug-In . SVG Version: 6.00 Build 0)  -->

<svg
   xmlns:dc="http://purl.org/dc/elements/1.1/"
   xmlns:cc="http://creativecommons.org/ns#"
   xmlns:rdf="http://www.w3.org/1999/02/22-rdf-syntax-ns#"
   xmlns:svg="http://www.w3.org/2000/svg"
   xmlns="http://www.w3.org/2000/svg"
   xmlns:sodipodi="http://sodipodi.sourceforge.net/DTD/sodipodi-0.dtd"
   xmlns:inkscape="http://www.inkscape.org/namespaces/inkscape"
   version="1.1"
   id="Layer_1"
   x="0px"
   y="0px"
   viewBox="0 0 39.500001 726.69999"
   xml:space="preserve"
   sodipodi:docname="shape (1).svg"
   width="39.5"
   height="726.70001"
   inkscape:version="0.92.2 2405546, 2018-03-11"><metadata
   id="metadata18"><rdf:RDF><cc:Work
       rdf:about=""><dc:format>image/svg+xml</dc:format><dc:type
         rdf:resource="http://purl.org/dc/dcmitype/StillImage" /></cc:Work></rdf:RDF></metadata><defs
   id="defs16" /><sodipodi:namedview
   pagecolor="#ffffff"
   bordercolor="#666666"
   borderopacity="1"
   objecttolerance="10"
   gridtolerance="10"
   guidetolerance="10"
   inkscape:pageopacity="0"
   inkscape:pageshadow="2"
   inkscape:window-width="1366"
   inkscape:window-height="713"
   id="namedview14"
   showgrid="false"
   inkscape:zoom="0.28031832"
   inkscape:cx="15.508891"
   inkscape:cy="402.89109"
   inkscape:window-x="0"
   inkscape:window-y="27"
   inkscape:window-maximized="1"
   inkscape:current-layer="Layer_1" />
<style
   type="text/css"
   id="style2">
	.st0{fill:url(#SVGID_1_);}
	.st1{fill:#16191C;}
</style>
<linearGradient
   id="SVGID_1_"
   gradientUnits="userSpaceOnUse"
   x1="330.0889"
   y1="667.5976"
   x2="172.6683"
   y2="198.3248"
   gradientTransform="translate(242.9,57.9)">
	<stop
   offset="0"
   style="stop-color:#23353B"
   id="stop4" />
	<stop
   offset="1"
   style="stop-color:#16191C"
   id="stop6" />
</linearGradient>
<polygon
   class="st0"
   points="252,57.9 242.9,57.9 242.9,564.2 242.9,565.2 242.9,784.6 250.1,784.6 282.4,527.7 "
   id="polygon9"
   style="fill:url(#SVGID_1_)"
   transform="translate(-242.9,-57.9)" />
<polyline
   class="st1"
   points="242.9,784.6 250.1,784.6 282.4,527.7 242.9,564.2 "
   id="polyline11"
   style="fill:#16191c"
   transform="translate(-242.9,-57.9)" />
</svg>