<?xml version="1.0" encoding="utf-8"?>
<!-- Generator: Adobe Illustrator 22.1.0, SVG Export Plug-In . SVG Version: 6.00 Build 0)  -->
<svg version="1.1" id="Layer_1" xmlns="http://www.w3.org/2000/svg" xmlns:xlink="http://www.w3.org/1999/xlink" x="0px" y="0px"
	 viewBox="0 0 595.3 841.9" style="enable-background:new 0 0 595.3 841.9;" xml:space="preserve">
<style type="text/css">
	.st0{fill:url(#SVGID_1_);}
	.st1{fill:#16191C;}
</style>
<linearGradient id="SVGID_1_" gradientUnits="userSpaceOnUse" x1="-753.3223" y1="304.64" x2="-670.7579" y2="304.64" gradientTransform="matrix(-1 0 0 1.0007 -427.9 116.3919)">
	<stop  offset="0" style="stop-color:#1A272B"/>
	<stop  offset="1" style="stop-color:#16191C"/>
</linearGradient>
<polygon class="st0" points="279.1,784.6 325.4,517.7 273,57.9 242.9,57.9 242.9,564.2 242.9,565.2 242.9,784.6 "/>
<polyline class="st1" points="242.9,784.6 279.1,784.6 325.4,517.7 242.9,564.2 "/>
</svg>
