<?xml version="1.0" encoding="utf-8"?>
<!-- Generator: Adobe Illustrator 22.1.0, SVG Export Plug-In . SVG Version: 6.00 Build 0)  -->
<svg version="1.1"
	 id="Warstwa_1" inkscape:version="0.92.2 2405546, 2018-03-11" sodipodi:docname="bg-form-success.svg" xmlns:cc="http://creativecommons.org/ns#" xmlns:dc="http://purl.org/dc/elements/1.1/" xmlns:inkscape="http://www.inkscape.org/namespaces/inkscape" xmlns:rdf="http://www.w3.org/1999/02/22-rdf-syntax-ns#" xmlns:sodipodi="http://sodipodi.sourceforge.net/DTD/sodipodi-0.dtd" xmlns:svg="http://www.w3.org/2000/svg"
	 xmlns="http://www.w3.org/2000/svg" xmlns:xlink="http://www.w3.org/1999/xlink" x="0px" y="0px" viewBox="0 0 772.4 726.1"
	 style="enable-background:new 0 0 772.4 726.1;" xml:space="preserve">
<style type="text/css">
	.st0{fill:#00FF57;}
	.st1{fill:#16191C;}
</style>
<polygon id="polygon9" class="st0" points="99,0.5 70.1,270.7 112.5,726.2 772,726.2 772,220.3 772,219.3 772,1.2 "/>
<polyline id="polyline11" class="st1" points="772,1.2 96.4,0 70.1,270.7 772,220.3 "/>
<sodipodi:namedview  bordercolor="#666666" borderopacity="1" gridtolerance="10" guidetolerance="10" id="namedview18" inkscape:current-layer="Warstwa_1" inkscape:cx="386.20001" inkscape:cy="363.04999" inkscape:pageopacity="0" inkscape:pageshadow="2" inkscape:window-height="713" inkscape:window-maximized="1" inkscape:window-width="1366" inkscape:window-x="0" inkscape:window-y="27" inkscape:zoom="0.32502411" objecttolerance="10" pagecolor="#ffffff" showgrid="false">
	</sodipodi:namedview>
<title  id="title13">bg-form</title>
<polyline id="polyline15" class="st1" points="771.9,726.1 112.4,726.1 772.4,563.3 "/>
</svg>
