<?xml version="1.0" encoding="UTF-8" standalone="no"?>
<!-- Created with Inkscape (http://www.inkscape.org/) -->

<svg
   xmlns:dc="http://purl.org/dc/elements/1.1/"
   xmlns:cc="http://creativecommons.org/ns#"
   xmlns:rdf="http://www.w3.org/1999/02/22-rdf-syntax-ns#"
   xmlns:svg="http://www.w3.org/2000/svg"
   xmlns="http://www.w3.org/2000/svg"
   xmlns:sodipodi="http://sodipodi.sourceforge.net/DTD/sodipodi-0.dtd"
   xmlns:inkscape="http://www.inkscape.org/namespaces/inkscape"
   width="24.33955mm"
   height="15.996002mm"
   viewBox="0 0 24.33955 15.996002"
   version="1.1"
   id="svg6382"
   sodipodi:docname="icon3.svg"
   inkscape:version="0.92.3 (2405546, 2018-03-11)">
  <defs
     id="defs6376" />
  <sodipodi:namedview
     id="base"
     pagecolor="#ffffff"
     bordercolor="#666666"
     borderopacity="1.0"
     inkscape:pageopacity="0.0"
     inkscape:pageshadow="2"
     inkscape:zoom="0.35"
     inkscape:cx="293.93558"
     inkscape:cy="-32.683333"
     inkscape:document-units="mm"
     inkscape:current-layer="layer1"
     showgrid="false"
     inkscape:window-width="1366"
     inkscape:window-height="705"
     inkscape:window-x="-8"
     inkscape:window-y="-8"
     inkscape:window-maximized="1" />
  <metadata
     id="metadata6379">
    <rdf:RDF>
      <cc:Work
         rdf:about="">
        <dc:format>image/svg+xml</dc:format>
        <dc:type
           rdf:resource="http://purl.org/dc/dcmitype/StillImage" />
        <dc:title></dc:title>
      </cc:Work>
    </rdf:RDF>
  </metadata>
  <g
     inkscape:label="Layer 1"
     inkscape:groupmode="layer"
     id="layer1"
     transform="translate(59.794774,-306.3889)">
    <g
       transform="matrix(0.35277777,0,0,-0.35277777,-533.41858,550.62634)"
       id="g6338">
      <g
         transform="translate(1388.8787,646.98362)"
         id="g1332">
        <path
           inkscape:connector-curvature="0"
           id="path1334"
           style="fill:#6c7c80;fill-opacity:1;fill-rule:nonzero;stroke:none"
           d="m 0,0 h -23.652 c -12.521,0 -22.671,10.15 -22.671,22.671 0,12.521 10.15,22.672 22.671,22.672 H 0 c 12.521,0 22.671,-10.151 22.671,-22.672 C 22.671,10.15 12.521,0 0,0" />
      </g>
      <g
         transform="translate(1372.7017,661.73902)"
         id="g1336">
        <path
           inkscape:connector-curvature="0"
           id="path1338"
           style="fill:#ffffff;fill-opacity:1;fill-rule:nonzero;stroke:none"
           d="M 0,0 -1.233,1.14 8.839,11.281 10.025,10.095 Z" />
      </g>
      <g
         transform="translate(1379.4239,670.85712)"
         id="g1340">
        <path
           inkscape:connector-curvature="0"
           id="path1342"
           style="fill:#c4c8ca;fill-opacity:1;fill-rule:nonzero;stroke:none"
           d="M 0,0 1.186,-1.187 2.838,0.512 1.675,1.698 Z" />
      </g>
      <g
         transform="translate(1388.4488,664.34442)"
         id="g1344">
        <path
           inkscape:connector-curvature="0"
           id="path1346"
           style="fill:#ffffff;fill-opacity:1;fill-rule:nonzero;stroke:none"
           d="m 0,0 c 1.698,-1.698 2.466,-3.745 1.814,-4.745 0.163,0.14 0.349,0.302 0.512,0.465 4.745,4.745 3.861,13.328 -1.977,19.166 -5.838,5.839 -14.421,6.722 -19.166,1.977 -0.163,-0.162 -0.303,-0.325 -0.465,-0.511 1,0.651 3.047,-0.117 4.745,-1.815 1.651,-1.651 2.395,-3.605 1.884,-4.652 -0.093,-0.209 -0.093,-0.442 0.07,-0.604 l 0.069,-0.07 c 0.163,-0.163 0.396,-0.186 0.605,-0.07 1.047,0.535 3.001,-0.233 4.652,-1.884 C -5.605,5.605 -4.861,3.652 -5.373,2.605 -5.466,2.396 -5.466,2.163 -5.303,2 l 0.07,-0.07 C -5.071,1.768 -4.838,1.744 -4.629,1.86 -3.605,2.419 -1.628,1.651 0,0" />
      </g>
      <g
         transform="translate(1390.1931,680.60322)"
         id="g1348">
        <path
           inkscape:connector-curvature="0"
           id="path1350"
           style="fill:#ffffff;fill-opacity:1;fill-rule:nonzero;stroke:none"
           d="m 0,0 c -0.186,0.186 -0.465,0.209 -0.675,0.046 l -2.465,-1.93 c -0.023,0 -0.023,-0.023 0,-0.047 l 1.21,-1.233 c 0.023,-0.023 0.023,0 0.046,0 l 1.907,2.489 C 0.186,-0.465 0.163,-0.186 0,0 m -17.491,-18.864 -1.233,1.14 -2.582,-2.559 c -0.884,-0.884 -2.047,-1.116 -2.931,-0.209 -0.605,0.604 -0.325,1.767 0.535,2.675 0.303,0.325 0.372,0.814 0.093,1.163 -0.326,0.418 -0.907,0.442 -1.279,0.07 0,0 -0.628,-0.768 -0.838,-1.257 -0.604,-1.372 -0.674,-2.675 0.396,-3.768 0.768,-0.767 1.768,-1.093 2.791,-1 0.861,0.07 1.628,0.488 2.256,1.07 0.001,0 2.792,2.675 2.792,2.675" />
      </g>
      <g
         transform="translate(1388.0999,679.88202)"
         id="g1352">
        <path
           inkscape:connector-curvature="0"
           id="path1354"
           style="fill:#cad5d8;fill-opacity:1;fill-rule:nonzero;stroke:none"
           d="m 0,0 c -3.559,0.116 -8.071,-1.931 -11.863,-5.722 l -0.418,-0.442 0.07,-0.093 0.069,-0.07 c 0.163,-0.163 0.396,-0.186 0.605,-0.069 1.047,0.534 3.001,-0.233 4.652,-1.885 1.652,-1.651 2.396,-3.605 1.884,-4.652 -0.093,-0.209 -0.093,-0.442 0.07,-0.605 l 0.07,-0.069 c 0.023,-0.023 0.046,-0.047 0.093,-0.07 l 0.442,0.419 c 3.791,3.791 5.838,8.327 5.698,11.862 C 1.163,-1.163 0.954,-0.931 0.721,-0.698 0.465,-0.442 0.233,-0.232 0,0" />
      </g>
    </g>
  </g>
</svg>
