<?xml version="1.0" encoding="UTF-8" standalone="no"?>
<!-- Generator: Adobe Illustrator 22.1.0, SVG Export Plug-In . SVG Version: 6.00 Build 0)  -->

<svg
   xmlns:dc="http://purl.org/dc/elements/1.1/"
   xmlns:cc="http://creativecommons.org/ns#"
   xmlns:rdf="http://www.w3.org/1999/02/22-rdf-syntax-ns#"
   xmlns:svg="http://www.w3.org/2000/svg"
   xmlns="http://www.w3.org/2000/svg"
   xmlns:sodipodi="http://sodipodi.sourceforge.net/DTD/sodipodi-0.dtd"
   xmlns:inkscape="http://www.inkscape.org/namespaces/inkscape"
   version="1.1"
   id="Layer_1"
   x="0px"
   y="0px"
   viewBox="0 0 29.581979 54.921321"
   xml:space="preserve"
   sodipodi:docname="arrow.svg"
   width="29.58198"
   height="54.921322"
   inkscape:version="0.92.2 2405546, 2018-03-11"><metadata
   id="metadata27"><rdf:RDF><cc:Work
       rdf:about=""><dc:format>image/svg+xml</dc:format><dc:type
         rdf:resource="http://purl.org/dc/dcmitype/StillImage" /><dc:title /></cc:Work></rdf:RDF></metadata><defs
   id="defs25" /><sodipodi:namedview
   pagecolor="#ffffff"
   bordercolor="#666666"
   borderopacity="1"
   objecttolerance="10"
   gridtolerance="10"
   guidetolerance="10"
   inkscape:pageopacity="0"
   inkscape:pageshadow="2"
   inkscape:window-width="1366"
   inkscape:window-height="713"
   id="namedview23"
   showgrid="false"
   inkscape:zoom="6.3428796"
   inkscape:cx="-20.348944"
   inkscape:cy="32.99388"
   inkscape:window-x="0"
   inkscape:window-y="27"
   inkscape:window-maximized="1"
   inkscape:current-layer="Layer_1" />
<style
   type="text/css"
   id="style2">
	.st0{fill:#00FF57;}
	.st1{fill:#16191C;}
	.st2{font-family:'MarkPro-Bold';}
	.st3{font-size:30.864px;}
	.st4{font-size:24px;}
	.st5{font-size:18px;}
	.st6{fill:none;stroke:#1B2026;stroke-miterlimit:10;}
</style>





<polyline
   class="st6"
   points="407,469.6 420.2,482.8 407,496 "
   id="polyline20"
   transform="matrix(2,0,0,2,-812.93934,-938.13934)"
   style="fill:none;stroke:#000000;stroke-width:1.5;stroke-miterlimit:10;stroke-dasharray:none;stroke-opacity:1" />
</svg>