<?xml version="1.0" encoding="UTF-8" standalone="no"?>
<!-- Created with Inkscape (http://www.inkscape.org/) -->

<svg
   xmlns:dc="http://purl.org/dc/elements/1.1/"
   xmlns:cc="http://creativecommons.org/ns#"
   xmlns:rdf="http://www.w3.org/1999/02/22-rdf-syntax-ns#"
   xmlns:svg="http://www.w3.org/2000/svg"
   xmlns="http://www.w3.org/2000/svg"
   xmlns:sodipodi="http://sodipodi.sourceforge.net/DTD/sodipodi-0.dtd"
   xmlns:inkscape="http://www.inkscape.org/namespaces/inkscape"
   width="31.375269mm"
   height="31.595173mm"
   viewBox="0 0 31.375269 31.595173"
   version="1.1"
   id="svg2477"
   inkscape:version="0.92.2 2405546, 2018-03-11"
   sodipodi:docname="icon1.svg">
  <defs
     id="defs2471" />
  <sodipodi:namedview
     id="base"
     pagecolor="#ffffff"
     bordercolor="#666666"
     borderopacity="1.0"
     inkscape:pageopacity="0.0"
     inkscape:pageshadow="2"
     inkscape:zoom="0.35"
     inkscape:cx="-682.13672"
     inkscape:cy="56.850269"
     inkscape:document-units="mm"
     inkscape:current-layer="layer1"
     showgrid="false"
     inkscape:window-width="1366"
     inkscape:window-height="713"
     inkscape:window-x="0"
     inkscape:window-y="27"
     inkscape:window-maximized="1" />
  <metadata
     id="metadata2474">
    <rdf:RDF>
      <cc:Work
         rdf:about="">
        <dc:format>image/svg+xml</dc:format>
        <dc:type
           rdf:resource="http://purl.org/dc/dcmitype/StillImage" />
        <dc:title></dc:title>
      </cc:Work>
    </rdf:RDF>
  </metadata>
  <g
     inkscape:label="Layer 1"
     inkscape:groupmode="layer"
     id="layer1"
     transform="translate(-150.62189,-132.27979)">
    <g
       transform="matrix(0.26458333,0,0,0.26458333,-84.016027,-50.490447)"
       id="g14"
       style="fill:#ffffff">
      <g
         id="g12"
         style="fill:#ffffff">
        <path
           inkscape:connector-curvature="0"
           d="m 995,793.1 c 0,-3.4 -2.8,-6.2 -6.2,-6.2 -3.4,0 -6.2,2.8 -6.2,6.2 0,3.4 2.8,6.2 6.2,6.2 3.4,-0.1 6.2,-2.8 6.2,-6.2 z m -8.7,0 c 0,-1.4 1.1,-2.5 2.5,-2.5 1.4,0 2.5,1.1 2.5,2.5 0,1.4 -1.1,2.5 -2.5,2.5 -1.4,0 -2.5,-1.1 -2.5,-2.5 z"
           id="path4"
           style="fill:#ffffff" />
        <path
           inkscape:connector-curvature="0"
           d="m 1005.4,792.7 c -0.1,-4.5 -2,-8.7 -5.4,-11.7 l -36.9,-33.3 32.6,-32.6 c 0.2,-0.1 0.4,-0.1 0.6,-0.3 l 7.1,-3.7 c 1,-0.5 1.6,-1.4 1.8,-2.5 0.2,-1.1 -0.2,-2.2 -1,-2.9 l -7.9,-7.9 c -0.8,-0.8 -1.9,-1.1 -2.9,-1 -1.1,0.2 -2,0.8 -2.5,1.8 l -3.7,7.1 c -0.1,0.2 -0.2,0.4 -0.3,0.6 l -15.4,15.4 c -0.7,0.7 -0.7,1.9 0,2.6 0.7,0.7 1.9,0.7 2.6,0 l 14.1,-14.1 3.7,3.7 -36.1,36.1 -3.7,-3.7 15.8,-15.8 c 0.7,-0.7 0.7,-1.9 0,-2.6 -0.7,-0.7 -1.9,-0.7 -2.6,0 l -11.4,11.4 -12.4,-11.2 c 3.5,-10.2 1,-21.5 -6.7,-29.1 -7.8,-7.8 -19.6,-10.3 -30,-6.4 -0.6,0.2 -1,0.7 -1.1,1.3 -0.1,0.6 0.1,1.2 0.5,1.7 l 14.4,14.4 c 0.4,0.4 0.7,1 0.7,1.6 0,0.6 -0.2,1.2 -0.7,1.6 l -9.3,9.3 c -0.4,0.4 -1,0.7 -1.6,0.7 -0.6,0 -1.2,-0.2 -1.6,-0.7 l -14.4,-14.4 c -0.4,-0.4 -1.1,-0.6 -1.7,-0.5 -0.6,0.1 -1.1,0.6 -1.3,1.1 -4,10.4 -1.5,22.1 6.4,30 7.5,7.5 18.6,10.1 28.6,6.9 l 9.6,10.5 c -0.5,0.9 -1.1,1.7 -1.8,2.5 -2.8,2.8 -6.9,3.6 -10.6,2.2 -0.7,-0.3 -1.4,-0.1 -2,0.4 l -22.4,22.4 c -6.1,6.1 -6.1,15.9 0,22 2.9,2.9 6.9,4.6 11,4.6 4.2,0 8.1,-1.6 11,-4.6 l 22.4,-22.4 c 0.5,-0.5 0.7,-1.3 0.4,-2 -1.4,-3.7 -0.5,-7.8 2.2,-10.6 2.8,-2.8 6.9,-3.6 10.6,-2.2 0.7,0.3 1.4,0.1 2,-0.4 l 4.2,-4.2 c 1.3,-1.3 2,-3 2,-4.8 0,-1.8 -0.7,-3.5 -2,-4.8 l -1.8,-1.8 2.2,-2.2 37,33.4 c 2.6,2.4 4.1,5.6 4.2,9.1 0.1,3.5 -1.2,6.8 -3.7,9.3 -2.5,2.5 -5.8,3.8 -9.3,3.7 -3.5,-0.1 -6.7,-1.5 -9.1,-4.1 l -27.5,-30.1 c -0.7,-0.7 -1.8,-0.8 -2.6,-0.1 -0.7,0.7 -0.8,1.8 -0.1,2.6 l 27.5,30.1 c 3,3.3 7.2,5.2 11.7,5.3 0.1,0 0.3,0 0.4,0 4.4,0 8.5,-1.7 11.5,-4.8 3.1,-3.1 4.8,-7.3 4.7,-11.9 z m -80,-50.4 c -0.5,-0.6 -1.3,-0.7 -2,-0.5 -9,3.3 -19.1,1.1 -25.9,-5.6 -6.1,-6.1 -8.5,-15 -6.4,-23.3 l 12.3,12.3 c 1.1,1.1 2.6,1.7 4.2,1.7 1.6,0 3.1,-0.6 4.2,-1.7 l 9.3,-9.3 c 1.1,-1.1 1.7,-2.6 1.7,-4.2 0,-1.6 -0.6,-3.1 -1.7,-4.2 l -12.3,-12.3 c 8.3,-2.1 17.2,0.3 23.3,6.4 6.9,6.9 9.1,17.3 5.4,26.4 -0.3,0.7 -0.1,1.5 0.5,2 l 13.2,11.9 -1.7,1.7 -1.8,-1.8 c -1.3,-1.3 -3,-2 -4.8,-2 -1.8,0 -3.5,0.7 -4.8,2 l -4.2,4.2 c -0.5,0.5 -0.7,1.3 -0.4,2 0.5,1.3 0.7,2.6 0.7,3.9 z m 32.2,19 -3.4,3.4 c -4.7,-1.4 -9.8,-0.1 -13.4,3.4 v 0 c -3.5,3.5 -4.8,8.6 -3.4,13.4 l -21.6,21.6 c -2.2,2.2 -5.2,3.5 -8.4,3.5 -3.2,0 -6.2,-1.2 -8.4,-3.5 -4.6,-4.6 -4.6,-12.2 0,-16.8 l 21.6,-21.6 c 4.7,1.4 9.8,0.1 13.4,-3.4 3.5,-3.5 4.8,-8.6 3.4,-13.4 l 3.4,-3.4 c 1.2,-1.2 3.2,-1.2 4.4,0 l 3.1,3.1 6.3,6.3 3.1,3.1 c 1.1,1.1 1.1,3.1 -0.1,4.3 z m 36.4,-60.7 7.5,7.5 -6.6,3.5 -4.4,-4.4 z"
           id="path6"
           style="fill:#ffffff" />
        <path
           inkscape:connector-curvature="0"
           d="m 924.2,771.6 c -0.7,-0.7 -1.9,-0.7 -2.6,0 L 904.2,789 c -0.7,0.7 -0.7,1.9 0,2.6 0.4,0.4 0.8,0.5 1.3,0.5 0.5,0 0.9,-0.2 1.3,-0.5 l 17.4,-17.4 c 0.7,-0.7 0.7,-1.9 0,-2.6 z"
           id="path8"
           style="fill:#ffffff" />
        <path
           inkscape:connector-curvature="0"
           d="m 928,778 -17.4,17.4 c -0.7,0.7 -0.7,1.9 0,2.6 0.4,0.4 0.8,0.5 1.3,0.5 0.5,0 0.9,-0.2 1.3,-0.5 l 17.4,-17.4 c 0.7,-0.7 0.7,-1.9 0,-2.6 -0.7,-0.7 -1.9,-0.7 -2.6,0 z"
           id="path10"
           style="fill:#ffffff" />
      </g>
    </g>
  </g>
</svg>
