<?xml version="1.0" encoding="UTF-8" standalone="no"?>
<!-- Created with Inkscape (http://www.inkscape.org/) -->

<svg
   xmlns:dc="http://purl.org/dc/elements/1.1/"
   xmlns:cc="http://creativecommons.org/ns#"
   xmlns:rdf="http://www.w3.org/1999/02/22-rdf-syntax-ns#"
   xmlns:svg="http://www.w3.org/2000/svg"
   xmlns="http://www.w3.org/2000/svg"
   xmlns:sodipodi="http://sodipodi.sourceforge.net/DTD/sodipodi-0.dtd"
   xmlns:inkscape="http://www.inkscape.org/namespaces/inkscape"
   width="24.33955mm"
   height="15.996355mm"
   viewBox="0 0 24.33955 15.996355"
   version="1.1"
   id="svg6382"
   sodipodi:docname="icon2.svg"
   inkscape:version="0.92.3 (2405546, 2018-03-11)">
  <defs
     id="defs6376" />
  <sodipodi:namedview
     id="base"
     pagecolor="#ffffff"
     bordercolor="#666666"
     borderopacity="1.0"
     inkscape:pageopacity="0.0"
     inkscape:pageshadow="2"
     inkscape:zoom="0.35"
     inkscape:cx="67.939584"
     inkscape:cy="-128.62627"
     inkscape:document-units="mm"
     inkscape:current-layer="layer1"
     showgrid="false"
     inkscape:window-width="1366"
     inkscape:window-height="705"
     inkscape:window-x="-8"
     inkscape:window-y="-8"
     inkscape:window-maximized="1" />
  <metadata
     id="metadata6379">
    <rdf:RDF>
      <cc:Work
         rdf:about="">
        <dc:format>image/svg+xml</dc:format>
        <dc:type
           rdf:resource="http://purl.org/dc/dcmitype/StillImage" />
        <dc:title></dc:title>
      </cc:Work>
    </rdf:RDF>
  </metadata>
  <g
     inkscape:label="Layer 1"
     inkscape:groupmode="layer"
     id="layer1"
     transform="translate(-62.482258,-245.69558)">
    <g
       transform="matrix(0.35277777,0,0,-0.35277777,-348.77894,490.36729)"
       id="g6362">
      <g
         transform="translate(1212.1028,648.21362)"
         id="g1288">
        <path
           inkscape:connector-curvature="0"
           id="path1290"
           style="fill:#fa4a4e;fill-opacity:1;fill-rule:nonzero;stroke:none"
           d="m 0,0 h -23.652 c -12.521,0 -22.671,10.15 -22.671,22.671 v 0.002 c 0,12.521 10.15,22.671 22.671,22.671 H 0 c 12.521,0 22.671,-10.15 22.671,-22.671 V 22.671 C 22.671,10.15 12.521,0 0,0" />
      </g>
      <g
         transform="translate(1200.1914,661.05192)"
         id="g1292">
        <path
           inkscape:connector-curvature="0"
           id="path1294"
           style="fill:#ffffff;fill-opacity:1;fill-rule:nonzero;stroke:none"
           d="m 0,0 c -5.444,0 -9.857,4.413 -9.857,9.857 0,5.444 4.413,9.857 9.857,9.857 5.444,0 9.857,-4.413 9.857,-9.857 C 9.857,4.413 5.444,0 0,0 m 0,21.357 c -6.351,0 -11.5,-5.149 -11.5,-11.5 0,-6.351 5.149,-11.5 11.5,-11.5 6.351,0 11.5,5.149 11.5,11.5 0,6.351 -5.149,11.5 -11.5,11.5" />
      </g>
      <g
         transform="translate(1200.208,680.21852)"
         id="g1296">
        <path
           inkscape:connector-curvature="0"
           id="path1298"
           style="fill:#fdaaac;fill-opacity:1;fill-rule:nonzero;stroke:none"
           d="m 0,0 c -5.141,0 -9.309,-4.168 -9.309,-9.31 0,-5.141 4.168,-9.309 9.309,-9.309 5.141,0 9.309,4.168 9.309,9.309 C 9.303,-4.17 5.139,-0.006 0,0 m 0,-19.714 c -5.746,0 -10.405,4.658 -10.405,10.404 0,5.747 4.659,10.405 10.405,10.405 5.746,0 10.405,-4.658 10.405,-10.405 C 10.398,-15.053 5.744,-19.708 0,-19.714" />
      </g>
      <g
         transform="translate(1200.1951,669.17892)"
         id="g1300">
        <path
           inkscape:connector-curvature="0"
           id="path1302"
           style="fill:#ffffff;fill-opacity:1;fill-rule:nonzero;stroke:none"
           d="m 0,0 c -0.966,0 -1.748,0.783 -1.748,1.748 0,0.965 0.782,1.748 1.748,1.748 0.965,0 1.748,-0.783 1.748,-1.748 C 1.748,0.783 0.965,0 0,0 M 9.315,1.895 5.003,2.245 C 4.362,2.296 3.883,2.858 3.935,3.5 3.96,3.806 4.105,4.09 4.338,4.291 L 7.621,7.107 C 6.432,8.799 4.715,10.048 2.74,10.661 L 1.074,6.664 C 0.827,6.07 0.145,5.79 -0.45,6.037 -0.734,6.155 -0.959,6.381 -1.077,6.664 l -1.662,3.993 C -4.714,10.045 -6.43,8.795 -7.619,7.104 L -4.337,4.288 C -3.848,3.869 -3.791,3.133 -4.21,2.645 -4.411,2.411 -4.695,2.266 -5.001,2.241 L -9.313,1.892 c 0,-0.05 -0.008,-0.098 -0.008,-0.147 -10e-4,-2.019 0.658,-3.983 1.877,-5.594 l 3.688,2.25 c 0.55,0.335 1.267,0.162 1.602,-0.388 0.16,-0.263 0.21,-0.577 0.139,-0.877 L -3.016,-7.07 c 1.954,-0.679 4.081,-0.679 6.036,0 l -1.001,4.206 c -0.149,0.626 0.237,1.255 0.863,1.404 0.299,0.071 0.614,0.022 0.877,-0.139 l 3.687,-2.246 c 1.218,1.61 1.877,3.574 1.876,5.593 0,0.05 -0.006,0.097 -0.007,0.147" />
      </g>
      <g
         transform="translate(1200.1914,659.46602)"
         id="g1304">
        <path
           inkscape:connector-curvature="0"
           id="path1306"
           style="fill:#ffffff;fill-opacity:1;fill-rule:nonzero;stroke:none"
           d="m 0,0 c -6.32,0 -11.443,5.123 -11.443,11.443 0,6.32 5.123,11.443 11.443,11.443 6.32,0 11.443,-5.123 11.443,-11.443 C 11.443,5.123 6.32,0 0,0 m 0,24.793 c -7.373,0 -13.35,-5.977 -13.35,-13.35 0,-7.373 5.977,-13.35 13.35,-13.35 7.373,0 13.35,5.977 13.35,13.35 0,7.373 -5.977,13.35 -13.35,13.35" />
      </g>
      <g
         transform="translate(1200.1914,658.20432)"
         id="g1308">
        <path
           inkscape:connector-curvature="0"
           id="path1310"
           style="fill:#ffffff;fill-opacity:1;fill-rule:nonzero;stroke:none"
           d="m 0,0 c -7.017,0 -12.705,5.688 -12.705,12.705 0,7.016 5.688,12.705 12.705,12.705 7.017,0 12.705,-5.689 12.705,-12.705 C 12.705,5.688 7.017,0 0,0 m 0,27.527 c -8.186,0 -14.823,-6.636 -14.823,-14.822 0,-8.186 6.637,-14.823 14.823,-14.823 8.186,0 14.822,6.637 14.822,14.823 0,8.186 -6.636,14.822 -14.822,14.822" />
      </g>
      <g
         transform="translate(1201.9429,673.70672)"
         id="g1312">
        <path
           inkscape:connector-curvature="0"
           id="path1314"
           style="fill:#fdaaac;fill-opacity:1;fill-rule:nonzero;stroke:none"
           d="m 0,0 c -0.116,0 -0.21,-0.094 -0.21,-0.21 0,-0.117 0.094,-0.211 0.21,-0.211 0.116,0 0.211,0.094 0.211,0.211 C 0.211,-0.094 0.116,0 0,0 m 0,-0.842 c -0.349,0 -0.632,0.283 -0.632,0.632 0,0.349 0.283,0.631 0.632,0.631 0.349,0 0.632,-0.282 0.632,-0.631 0,-0.349 -0.283,-0.632 -0.632,-0.632" />
      </g>
      <g
         transform="translate(1198.447,673.70672)"
         id="g1316">
        <path
           inkscape:connector-curvature="0"
           id="path1318"
           style="fill:#fdaaac;fill-opacity:1;fill-rule:nonzero;stroke:none"
           d="m 0,0 c -0.116,0 -0.21,-0.094 -0.21,-0.21 0,-0.117 0.094,-0.211 0.21,-0.211 0.116,0 0.21,0.094 0.21,0.211 C 0.21,-0.094 0.116,0 0,0 m 0,-0.842 c -0.349,0 -0.632,0.283 -0.632,0.632 0,0.349 0.283,0.631 0.632,0.631 0.349,0 0.632,-0.282 0.632,-0.631 0,-0.349 -0.283,-0.632 -0.632,-0.632" />
      </g>
      <g
         transform="translate(1203.115,670.20282)"
         id="g1320">
        <path
           inkscape:connector-curvature="0"
           id="path1322"
           style="fill:#fdaaac;fill-opacity:1;fill-rule:nonzero;stroke:none"
           d="m 0,0 c -0.116,0 -0.211,-0.095 -0.211,-0.211 0,-0.116 0.095,-0.21 0.211,-0.21 0.116,0 0.21,0.094 0.21,0.21 C 0.21,-0.095 0.116,0 0,0 m 0,-0.842 c -0.349,0 -0.632,0.282 -0.632,0.631 0,0.349 0.283,0.632 0.632,0.632 0.349,0 0.632,-0.283 0.632,-0.632 C 0.632,-0.56 0.349,-0.842 0,-0.842" />
      </g>
      <g
         transform="translate(1197.2783,670.20282)"
         id="g1324">
        <path
           inkscape:connector-curvature="0"
           id="path1326"
           style="fill:#fdaaac;fill-opacity:1;fill-rule:nonzero;stroke:none"
           d="m 0,0 c -0.116,0 -0.211,-0.095 -0.211,-0.211 0,-0.116 0.095,-0.21 0.211,-0.21 0.116,0 0.21,0.094 0.21,0.21 C 0.21,-0.095 0.116,0 0,0 m 0,-0.842 c -0.349,0 -0.632,0.282 -0.632,0.631 0,0.349 0.283,0.632 0.632,0.632 0.349,0 0.632,-0.283 0.632,-0.632 C 0.632,-0.56 0.349,-0.842 0,-0.842" />
      </g>
      <g
         transform="translate(1200.2508,668.16032)"
         id="g1328">
        <path
           inkscape:connector-curvature="0"
           id="path1330"
           style="fill:#fdaaac;fill-opacity:1;fill-rule:nonzero;stroke:none"
           d="m 0,0 c -0.116,0 -0.211,-0.094 -0.211,-0.21 0,-0.117 0.095,-0.211 0.211,-0.211 0.116,0 0.21,0.094 0.21,0.211 C 0.21,-0.094 0.116,0 0,0 m 0,-0.842 c -0.349,0 -0.632,0.282 -0.632,0.632 0,0.348 0.283,0.631 0.632,0.631 0.349,0 0.632,-0.283 0.632,-0.631 0,-0.35 -0.283,-0.632 -0.632,-0.632" />
      </g>
    </g>
  </g>
</svg>
