<?xml version="1.0" encoding="UTF-8" standalone="no"?>
<!-- Created with Inkscape (http://www.inkscape.org/) -->

<svg
   xmlns:dc="http://purl.org/dc/elements/1.1/"
   xmlns:cc="http://creativecommons.org/ns#"
   xmlns:rdf="http://www.w3.org/1999/02/22-rdf-syntax-ns#"
   xmlns:svg="http://www.w3.org/2000/svg"
   xmlns="http://www.w3.org/2000/svg"
   xmlns:sodipodi="http://sodipodi.sourceforge.net/DTD/sodipodi-0.dtd"
   xmlns:inkscape="http://www.inkscape.org/namespaces/inkscape"
   width="23.851658mm"
   height="15.675327mm"
   viewBox="0 0 23.851658 15.675327"
   version="1.1"
   id="svg6382"
   inkscape:version="0.92.3 (2405546, 2018-03-11)"
   sodipodi:docname="icon1.svg">
  <defs
     id="defs6376" />
  <sodipodi:namedview
     id="base"
     pagecolor="#ffffff"
     bordercolor="#666666"
     borderopacity="1.0"
     inkscape:pageopacity="0.0"
     inkscape:pageshadow="2"
     inkscape:zoom="0.35"
     inkscape:cx="281.23586"
     inkscape:cy="27.678682"
     inkscape:document-units="mm"
     inkscape:current-layer="layer1"
     showgrid="false"
     inkscape:window-width="1366"
     inkscape:window-height="705"
     inkscape:window-x="-8"
     inkscape:window-y="-8"
     inkscape:window-maximized="1" />
  <metadata
     id="metadata6379">
    <rdf:RDF>
      <cc:Work
         rdf:about="">
        <dc:format>image/svg+xml</dc:format>
        <dc:type
           rdf:resource="http://purl.org/dc/dcmitype/StillImage" />
        <dc:title></dc:title>
      </cc:Work>
    </rdf:RDF>
  </metadata>
  <g
     inkscape:label="Layer 1"
     inkscape:groupmode="layer"
     id="layer1"
     transform="translate(-31.423013,-140.48132)">
    <g
       transform="matrix(0.35277777,0,0,-0.35277777,-317.7197,385.42679)"
       id="g6374">
      <g
         transform="translate(1014.5698,668.52902)"
         id="g1284">
        <path
           inkscape:connector-curvature="0"
           id="path1286"
           style="fill:#ffffff;fill-opacity:1;fill-rule:nonzero;stroke:none"
           d="m 0,0 c 1.726,0 3.125,-1.399 3.125,-3.125 0,-1.727 -1.399,-3.126 -3.125,-3.126 -1.726,0 -3.125,1.399 -3.125,3.126 C -3.125,-1.399 -1.726,0 0,0" />
      </g>
      <g
         transform="translate(1035.0899,649.89962)"
         id="g1356">
        <path
           inkscape:connector-curvature="0"
           id="path1358"
           style="fill:#167af5;fill-opacity:1;fill-rule:nonzero;stroke:none"
           d="m 0,0 h -23.178 c -12.27,0 -22.216,9.947 -22.216,22.216 v 0.002 c 0,12.269 9.946,22.216 22.216,22.216 H 0 c 12.27,0 22.217,-9.947 22.217,-22.216 V 22.216 C 22.217,9.947 12.27,0 0,0" />
      </g>
      <g
         transform="translate(1035.4114,663.72722)"
         id="g1360">
        <path
           inkscape:connector-curvature="0"
           id="path1362"
           style="fill:#00b2ff;fill-opacity:1;fill-rule:evenodd;stroke:none"
           d="m 0,0 c -0.452,-0.811 -0.993,-1.532 -1.619,-2.16 l -0.038,-0.033 c -0.623,-0.615 -1.328,-1.143 -2.122,-1.588 -0.5,-0.276 -1.05,-0.374 -1.578,-0.3 -0.525,0.073 -1.028,0.318 -1.433,0.718 v 10e-4 -10e-4 l -5.088,5.09 0.901,0.901 5.089,-5.088 v -0.002 c 0.199,-0.201 0.449,-0.323 0.708,-0.359 0.117,-0.016 0.237,-0.016 0.357,0.005 l -5.799,5.798 2.887,2.889 c 0.269,-0.147 0.541,-0.259 0.819,-0.342 l 5.468,-5.466 c 0.117,0.179 0.231,0.364 0.338,0.555 0.136,0.249 0.187,0.522 0.152,0.783 -0.038,0.256 -0.158,0.504 -0.361,0.707 l -3.368,3.369 c 0.462,0.101 0.911,0.266 1.328,0.473 L -0.417,3.011 C -0.016,2.609 0.228,2.104 0.301,1.575 0.373,1.048 0.279,0.497 0,0" />
      </g>
      <g
         transform="translate(1019.3811,674.66282)"
         id="g1364">
        <path
           inkscape:connector-curvature="0"
           id="path1366"
           style="fill:#00b2ff;fill-opacity:1;fill-rule:evenodd;stroke:none"
           d="M 0,0 -3.286,3.284 -4.646,3.223 -8.225,7.622 -6.306,9.541 -1.91,5.961 -1.97,4.6 0.082,2.547 1.316,1.315 Z" />
      </g>
      <g
         transform="translate(1013.4864,662.09052)"
         id="g1368">
        <path
           inkscape:connector-curvature="0"
           id="path1370"
           style="fill:#ffffff;fill-opacity:1;fill-rule:evenodd;stroke:none"
           d="m 0,0 c -0.993,0.993 -0.993,2.603 0,3.596 0.993,0.993 2.603,0.993 3.596,0 C 4.589,2.603 4.589,0.993 3.596,0 2.603,-0.993 0.993,-0.993 0,0 m 14.835,14.864 c -1.11,1.094 -1.822,2.634 -1.002,3.453 l 3.364,3.366 -0.461,0.46 C 15.268,23.612 10.56,21.038 8.959,18.641 8.146,17.422 7.9,15.625 9.133,14.126 L -1.784,3.21 C -2.182,2.812 -2.422,2.313 -2.495,1.789 c -0.288,-2.072 2.217,-4.575 4.285,-4.288 0.525,0.074 1.025,0.315 1.423,0.714 l 10.86,10.86 c 1.375,-1.363 3.229,-0.968 4.541,-0.089 2.397,1.6 4.971,6.307 3.504,7.777 l -0.462,0.461 -3.364,-3.365 c -0.82,-0.818 -2.363,-0.109 -3.457,1.005" />
      </g>
    </g>
  </g>
</svg>
