<?xml version="1.0" encoding="UTF-8" standalone="no"?>
<!-- Created with Inkscape (http://www.inkscape.org/) -->

<svg
   xmlns:dc="http://purl.org/dc/elements/1.1/"
   xmlns:cc="http://creativecommons.org/ns#"
   xmlns:rdf="http://www.w3.org/1999/02/22-rdf-syntax-ns#"
   xmlns:svg="http://www.w3.org/2000/svg"
   xmlns="http://www.w3.org/2000/svg"
   xmlns:sodipodi="http://sodipodi.sourceforge.net/DTD/sodipodi-0.dtd"
   xmlns:inkscape="http://www.inkscape.org/namespaces/inkscape"
   width="39.316959mm"
   height="32.319817mm"
   viewBox="0 0 39.316959 32.319817"
   version="1.1"
   id="svg45"
   inkscape:version="0.92.2 2405546, 2018-03-11"
   sodipodi:docname="icon3.svg">
  <defs
     id="defs39" />
  <sodipodi:namedview
     id="base"
     pagecolor="#ffffff"
     bordercolor="#666666"
     borderopacity="1.0"
     inkscape:pageopacity="0.0"
     inkscape:pageshadow="2"
     inkscape:zoom="1.4"
     inkscape:cx="48.446527"
     inkscape:cy="33.786266"
     inkscape:document-units="mm"
     inkscape:current-layer="layer1"
     showgrid="false"
     inkscape:window-width="1366"
     inkscape:window-height="713"
     inkscape:window-x="0"
     inkscape:window-y="27"
     inkscape:window-maximized="1" />
  <metadata
     id="metadata42">
    <rdf:RDF>
      <cc:Work
         rdf:about="">
        <dc:format>image/svg+xml</dc:format>
        <dc:type
           rdf:resource="http://purl.org/dc/dcmitype/StillImage" />
        <dc:title />
      </cc:Work>
    </rdf:RDF>
  </metadata>
  <g
     inkscape:label="Layer 1"
     inkscape:groupmode="layer"
     id="layer1"
     transform="translate(-151.94286,-131.91748)">
    <g
       transform="matrix(0.26458333,0,0,0.26458333,64.656785,-50.449397)"
       id="g340"
       style="fill:#000000">
      <path
         inkscape:connector-curvature="0"
         d="m 404.9,689.2 c -33.4,0 -61.5,28.2 -61.5,61.5 0,33.4 28.2,61.5 61.5,61.5 33.4,0 61.5,-28.2 61.5,-61.5 0.1,-33.3 -28.1,-61.5 -61.5,-61.5 z m 57.6,64 c -0.4,8.5 -2.8,17 -7,24.6 l -0.2,0.4 -1.8,-1 c -0.4,-0.3 -1,-0.3 -1.5,-0.2 -0.5,0.1 -0.9,0.5 -1.2,0.9 -0.5,0.9 -0.2,2.1 0.7,2.6 l 1.7,1 -0.3,0.4 c -4.4,6.6 -10.2,12.5 -16.9,16.9 l -0.4,0.3 -1,-1.7 c -0.3,-0.4 -0.7,-0.8 -1.2,-0.9 -0.5,-0.1 -1,-0.1 -1.5,0.2 -0.4,0.3 -0.8,0.7 -0.9,1.2 -0.1,0.5 -0.1,1 0.2,1.5 l 1,1.8 -0.4,0.2 c -7.6,4.2 -16.1,6.6 -24.6,7 h -0.5 v -2.9 c 0,-1.1 -0.9,-1.9 -1.9,-1.9 -1.1,0 -1.9,0.9 -1.9,1.9 v 2.9 h -0.5 c -8.6,-0.4 -16.9,-2.7 -24.6,-6.9 l -0.4,-0.2 1.1,-1.9 c 0.5,-0.9 0.2,-2.1 -0.7,-2.6 -0.9,-0.5 -2.1,-0.2 -2.6,0.7 l -1,1.8 -0.4,-0.3 c -6.7,-4.4 -12.5,-10.2 -16.9,-16.9 l -0.3,-0.4 1.8,-1 c 0.4,-0.3 0.8,-0.7 0.9,-1.2 0.1,-0.5 0.1,-1 -0.2,-1.5 -0.3,-0.4 -0.7,-0.8 -1.2,-0.9 -0.5,-0.1 -1,-0.1 -1.5,0.2 l -1.9,1.1 -0.2,-0.4 c -4.2,-7.7 -6.5,-16 -6.9,-24.6 v -0.5 h 2.9 c 1.1,0 1.9,-0.9 1.9,-1.9 0,-1.1 -0.9,-1.9 -1.9,-1.9 h -2.9 v -0.5 c 0.4,-8.4 2.8,-16.9 7,-24.6 l 0.2,-0.4 1.8,1 c 0.4,0.3 1,0.3 1.5,0.2 0.5,-0.1 0.9,-0.5 1.2,-0.9 0.3,-0.4 0.3,-1 0.2,-1.5 -0.1,-0.5 -0.5,-0.9 -0.9,-1.2 l -1.7,-1 0.3,-0.4 c 4.4,-6.7 10.1,-12.4 16.9,-16.9 l 0.4,-0.3 1,1.7 c 0.5,0.9 1.7,1.2 2.6,0.7 0.4,-0.3 0.8,-0.7 0.9,-1.2 0.1,-0.5 0.1,-1 -0.2,-1.5 l -1,-1.8 0.4,-0.2 c 7.6,-4.2 16.1,-6.6 24.6,-7 h 0.5 v 2.9 c 0,1.1 0.9,1.9 1.9,1.9 1.1,0 1.9,-0.9 1.9,-1.9 v -2.9 h 0.5 c 8.5,0.4 17,2.8 24.6,7 l 0.4,0.2 -1,1.8 c -0.3,0.4 -0.3,1 -0.2,1.5 0.1,0.5 0.5,0.9 0.9,1.2 0.9,0.5 2.1,0.2 2.6,-0.7 l 1,-1.7 0.4,0.3 c 6.7,4.5 12.4,10.1 16.9,16.9 l 0.3,0.4 -1.7,1 c -0.4,0.3 -0.8,0.7 -0.9,1.2 -0.1,0.5 -0.1,1 0.2,1.5 0.5,0.9 1.7,1.2 2.6,0.7 l 1.8,-1 0.2,0.4 c 4.2,7.6 6.6,16.1 7,24.6 v 0.5 h -2.9 c -1.1,0 -1.9,0.9 -1.9,1.9 0,1.1 0.9,1.9 1.9,1.9 h 2.9 z"
         id="path312"
         style="fill:#000000" />
      <path
         inkscape:connector-curvature="0"
         d="m 404.9,707.1 c -24.1,0 -43.7,19.6 -43.7,43.6 0,24 19.6,43.6 43.7,43.6 24.1,0 43.6,-19.6 43.6,-43.6 0,-24 -19.5,-43.6 -43.6,-43.6 z m 0,83.6 c -22,0 -40,-17.9 -40,-40 0,-22 17.9,-40 40,-40 22,0 40,17.9 40,40 0,22.1 -17.9,40 -40,40 z"
         id="path314"
         style="fill:#000000" />
      <path
         inkscape:connector-curvature="0"
         d="m 411.1,760.8 c 0,-3.4 -2.8,-6.2 -6.2,-6.2 -3.4,0 -6.2,2.8 -6.2,6.2 0,3.4 2.8,6.2 6.2,6.2 3.4,0 6.2,-2.8 6.2,-6.2 z m -6.2,2.5 c -1.4,0 -2.5,-1.1 -2.5,-2.5 0,-1.4 1.1,-2.5 2.5,-2.5 1.4,0 2.5,1.1 2.5,2.5 0,1.4 -1.1,2.5 -2.5,2.5 z"
         id="path316"
         style="fill:#000000" />
      <path
         inkscape:connector-curvature="0"
         d="m 415,744.6 c -3.4,0 -6.2,2.8 -6.2,6.2 0,3.4 2.8,6.2 6.2,6.2 3.4,0 6.2,-2.8 6.2,-6.2 0,-3.5 -2.8,-6.2 -6.2,-6.2 z m 0,8.6 c -1.4,0 -2.5,-1.1 -2.5,-2.5 0,-1.4 1.1,-2.5 2.5,-2.5 1.4,0 2.5,1.1 2.5,2.5 0,1.4 -1.1,2.5 -2.5,2.5 z"
         id="path318"
         style="fill:#000000" />
      <path
         inkscape:connector-curvature="0"
         d="m 398.8,740.7 c 0,3.4 2.8,6.2 6.2,6.2 3.4,0 6.2,-2.8 6.2,-6.2 0,-3.4 -2.8,-6.2 -6.2,-6.2 -3.5,0 -6.2,2.8 -6.2,6.2 z m 6.1,-2.5 c 1.4,0 2.5,1.1 2.5,2.5 0,1.4 -1.1,2.5 -2.5,2.5 -1.4,0 -2.5,-1.1 -2.5,-2.5 0.1,-1.4 1.2,-2.5 2.5,-2.5 z"
         id="path320"
         style="fill:#000000" />
      <path
         inkscape:connector-curvature="0"
         d="m 394.8,744.6 c -3.4,0 -6.2,2.8 -6.2,6.2 0,3.4 2.8,6.2 6.2,6.2 3.4,0 6.2,-2.8 6.2,-6.2 0,-3.5 -2.8,-6.2 -6.2,-6.2 z m 0,8.6 c -1.4,0 -2.5,-1.1 -2.5,-2.5 0,-1.4 1.1,-2.5 2.5,-2.5 1.4,0 2.5,1.1 2.5,2.5 0,1.4 -1.1,2.5 -2.5,2.5 z"
         id="path322"
         style="fill:#000000" />
      <path
         inkscape:connector-curvature="0"
         d="m 389.9,732.3 v 0 c 1.5,1.4 3.4,2.1 5.2,2.1 0.8,0 1.6,-0.2 2.5,-0.5 l 0.4,-0.1 c 2.6,-1.1 4.4,-3.8 4.4,-6.7 v -5.3 c 0,-2.5 -1.1,-4.6 -3.1,-6 -1.9,-1.3 -4.2,-1.7 -6.6,-1.1 -1.6,0.6 -3.2,1.3 -4.8,2 -2.1,1.1 -3.5,3.2 -3.8,5.3 -0.5,2.4 0.3,4.7 2,6.4 z m -2.2,-9.6 c 0.3,-1.2 0.9,-2.1 2,-2.6 1,-0.6 2.3,-1.1 3.5,-1.5 l 0.8,-0.3 c 0.4,-0.1 0.8,-0.1 1.2,-0.1 0.7,0 1.5,0.2 2.1,0.6 1,0.8 1.6,1.8 1.6,3 v 5.2 c 0,1.6 -0.9,2.8 -2.3,3.4 -1.4,0.5 -2.9,0.2 -3.9,-0.8 l -3.8,-3.8 c -0.9,-0.7 -1.3,-1.8 -1.2,-3.1 z"
         id="path324"
         style="fill:#000000" />
      <path
         inkscape:connector-curvature="0"
         d="m 376,748.3 h 5.3 c 2.7,0 5.4,-1.8 6.9,-4.6 1.2,-2.7 0.6,-5.8 -1.5,-7.9 l -3.8,-3.8 c -1.7,-1.5 -4.1,-2.3 -6.4,-2 -2.4,0.3 -4.3,1.6 -5.4,3.8 -0.9,1.6 -1.5,3.2 -2,4.8 -0.8,2.3 -0.5,4.6 0.9,6.6 1.4,2 3.5,3.1 6,3.1 z m -3.5,-8.5 c 0.6,-1.4 1.1,-2.8 1.8,-4.3 0.6,-1.1 1.5,-1.8 2.5,-1.9 h 0.7 c 0.9,0 1.8,0.4 2.6,1 l 3.6,3.9 c 1,1 1.3,2.4 0.8,3.9 -0.5,1.3 -1.8,2.2 -3.2,2.2 H 376 c -1.2,0 -2.2,-0.5 -3,-1.6 -0.8,-0.9 -1,-2 -0.5,-3.2 l -0.2,-0.1 z"
         id="path326"
         style="fill:#000000" />
      <path
         inkscape:connector-curvature="0"
         d="m 388,757.8 v 0 c -1.1,-2.7 -3.9,-4.6 -6.7,-4.6 H 376 c -2.5,0 -4.6,1.1 -6,3.1 -1.3,1.9 -1.7,4.2 -1.1,6.6 0.6,1.6 1.3,3.2 2,4.8 1.1,2.1 3.1,3.5 5.3,3.8 0.5,0.2 0.8,0.2 1.3,0.2 1.9,0 3.9,-0.8 5.2,-2.1 l 3.8,-3.8 c 2,-2.2 2.6,-5.3 1.5,-8 z m -4.3,5.3 -3.8,3.8 c -0.7,0.8 -1.8,1.2 -3.1,1 -1.2,-0.3 -2.1,-0.9 -2.6,-2 -0.6,-1 -1.1,-2.3 -1.5,-3.5 l -0.3,-0.8 c -0.4,-1 -0.2,-2.3 0.5,-3.2 0.8,-1 1.8,-1.6 3,-1.6 h 5.3 c 1.4,0 2.7,0.9 3.2,2.2 0.7,1.5 0.3,3.2 -0.7,4.1 z"
         id="path328"
         style="fill:#000000" />
      <path
         inkscape:connector-curvature="0"
         d="m 412,733.8 c 0.8,0.4 1.7,0.6 2.8,0.6 2,0 3.8,-0.8 5.2,-2.1 l 3.8,-3.6 c 1.5,-1.7 2.3,-4.1 2,-6.4 -0.3,-2.4 -1.6,-4.3 -3.8,-5.4 -1.6,-0.9 -3.2,-1.5 -4.8,-2 -2.3,-0.8 -4.6,-0.5 -6.6,0.9 -2,1.4 -3.1,3.5 -3.1,6 v 5.3 c -0.1,2.9 1.7,5.5 4.5,6.7 z m -0.9,-12 c 0,-1.2 0.5,-2.2 1.5,-3 0.8,-0.5 1.4,-0.7 2.1,-0.7 0.4,0 0.8,0.1 1.2,0.3 1.4,0.6 2.8,1.1 4.3,1.9 1.1,0.6 1.8,1.5 1.9,2.6 0.1,1.2 -0.3,2.3 -1,3.1 l -3.7,3.7 c -1.1,1.1 -2.7,1.4 -4,0.8 -1.4,-0.7 -2.2,-2 -2.2,-3.4 v -5.3 z"
         id="path330"
         style="fill:#000000" />
      <path
         inkscape:connector-curvature="0"
         d="m 427.1,732 -3.8,3.8 c -2,2.2 -2.6,5.2 -1.5,7.9 1.1,2.7 3.9,4.6 6.7,4.6 h 5.3 c 2.5,0 4.6,-1.1 6.1,-3 1.4,-1.8 1.7,-4.3 0.9,-6.6 -0.6,-1.6 -1.3,-3.2 -2,-4.8 -1.1,-2.1 -3.2,-3.5 -5.3,-3.8 -2.4,-0.5 -4.6,0.2 -6.4,1.9 z m 5.9,1.7 c 1.1,0.1 2,0.8 2.6,1.8 0.8,1.4 1.5,3 1.8,4.3 0.4,1 0.2,2.3 -0.5,3.2 -0.8,1 -1.8,1.6 -3,1.6 h -5.3 c -1.6,0 -2.8,-0.9 -3.4,-2.3 -0.6,-1.4 -0.2,-2.9 0.9,-3.7 l 3.8,-3.8 c 0.6,-0.7 1.5,-1 2.5,-1 0.2,-0.1 0.4,-0.1 0.6,-0.1 z"
         id="path332"
         style="fill:#000000" />
      <path
         inkscape:connector-curvature="0"
         d="m 397.9,767.5 c -2.7,-1.2 -5.8,-0.6 -7.9,1.5 l -3.8,3.8 c -1.5,1.7 -2.3,4.1 -2,6.4 0.3,2.4 1.6,4.3 3.8,5.4 1.6,0.9 3.2,1.5 4.8,2 0.8,0.3 1.5,0.5 2.3,0.5 1.7,0 3.1,-0.5 4.3,-1.5 2,-1.4 3.1,-3.5 3.1,-6 v -5.3 c 0,-3 -1.9,-5.7 -4.6,-6.8 z m 0.9,12.1 c 0,1.2 -0.6,2.3 -1.6,3 -0.9,0.7 -2,0.9 -3.2,0.5 -1.4,-0.6 -2.9,-1.1 -4.3,-1.9 -1.1,-0.6 -1.8,-1.5 -1.9,-2.6 -0.1,-1.2 0.3,-2.3 1,-3.1 l 3.9,-3.8 c 0.6,-0.6 1.6,-1 2.5,-1 0.4,0 0.9,0.1 1.4,0.3 1.3,0.5 2.2,1.8 2.2,3.2 z"
         id="path334"
         style="fill:#000000" />
      <path
         inkscape:connector-curvature="0"
         d="m 433.9,753.2 h -5.3 c -3,0 -5.7,1.8 -6.7,4.6 -1.2,2.7 -0.6,5.8 1.5,7.9 l 3.7,3.7 c 1.4,1.4 3.2,2.1 5.2,2.1 0.4,0 0.8,0 1.1,-0.2 2.4,-0.3 4.2,-1.6 5.3,-3.8 0.9,-1.6 1.5,-3.2 2,-4.8 0.8,-2.3 0.5,-4.6 -0.9,-6.6 -1.3,-1.8 -3.4,-2.9 -5.9,-2.9 z m 3.5,8.5 c -0.6,1.4 -1.1,2.8 -1.8,4.3 -0.6,1.1 -1.5,1.8 -2.6,1.9 -1.2,0.1 -2.3,-0.3 -3.1,-1 l -3.7,-3.7 c -1.1,-1.1 -1.4,-2.7 -0.8,-4 0.5,-1.3 1.8,-2.2 3.2,-2.2 h 5.3 c 1.2,0 2.2,0.5 3,1.6 0.7,0.8 0.9,1.9 0.5,3.1 z"
         id="path336"
         style="fill:#000000" />
      <path
         inkscape:connector-curvature="0"
         d="m 419.9,769.2 v 0 c -2.3,-2.1 -5.3,-2.7 -7.9,-1.5 -2.7,1.1 -4.6,3.9 -4.6,6.7 v 5.3 c 0,2.5 1.1,4.6 3.1,6 1.4,0.9 2.8,1.4 4.3,1.4 0.8,0 1.5,-0.2 2.3,-0.3 1.6,-0.6 3.2,-1.3 4.8,-2 2.1,-1.1 3.5,-3.2 3.8,-5.3 0.5,-2.4 -0.3,-4.7 -2,-6.4 z m 2.2,9.7 c -0.3,1.2 -0.9,2.1 -2,2.6 -1,0.6 -2.3,1.1 -3.5,1.5 l -0.8,0.3 c -1,0.4 -2.3,0.2 -3.2,-0.5 -1,-0.8 -1.6,-1.8 -1.6,-3 v -5.3 c 0,-1.4 0.6,-2.6 1.7,-3.2 l 0.7,-0.3 c 1.4,-0.6 2.8,-0.2 3.8,1 l 3.8,3.8 c 0.9,0.7 1.3,1.8 1.1,3.1 z"
         id="path338"
         style="fill:#000000" />
    </g>
  </g>
</svg>
