<?xml version="1.0" encoding="UTF-8" standalone="no"?>
<!-- Created with Inkscape (http://www.inkscape.org/) -->

<svg
   xmlns:dc="http://purl.org/dc/elements/1.1/"
   xmlns:cc="http://creativecommons.org/ns#"
   xmlns:rdf="http://www.w3.org/1999/02/22-rdf-syntax-ns#"
   xmlns:svg="http://www.w3.org/2000/svg"
   xmlns="http://www.w3.org/2000/svg"
   xmlns:sodipodi="http://sodipodi.sourceforge.net/DTD/sodipodi-0.dtd"
   xmlns:inkscape="http://www.inkscape.org/namespaces/inkscape"
   width="39.317078mm"
   height="32.319817mm"
   viewBox="0 0 39.317078 32.319817"
   version="1.1"
   id="svg3089"
   inkscape:version="0.92.2 2405546, 2018-03-11"
   sodipodi:docname="icon2.svg">
  <defs
     id="defs3083" />
  <sodipodi:namedview
     id="base"
     pagecolor="#ffffff"
     bordercolor="#666666"
     borderopacity="1.0"
     inkscape:pageopacity="0.0"
     inkscape:pageshadow="2"
     inkscape:zoom="0.35"
     inkscape:cx="74.300005"
     inkscape:cy="61.076972"
     inkscape:document-units="mm"
     inkscape:current-layer="layer1"
     showgrid="false"
     inkscape:window-width="1366"
     inkscape:window-height="713"
     inkscape:window-x="0"
     inkscape:window-y="27"
     inkscape:window-maximized="1" />
  <metadata
     id="metadata3086">
    <rdf:RDF>
      <cc:Work
         rdf:about="">
        <dc:format>image/svg+xml</dc:format>
        <dc:type
           rdf:resource="http://purl.org/dc/dcmitype/StillImage" />
        <dc:title />
      </cc:Work>
    </rdf:RDF>
  </metadata>
  <g
     inkscape:label="Layer 1"
     inkscape:groupmode="layer"
     id="layer1"
     transform="translate(49.518662,-132.67347)">
    <path
       inkscape:connector-curvature="0"
       d="m -37.294906,161.9063 0.07937,-0.3175 h 14.20813 l 0.07937,0.3175 c 0.291042,1.08479 1.005417,1.98437 1.984375,2.54 0.978958,0.55562 2.116667,0.68792 3.201458,0.39687 1.402292,-0.39687 2.54,-1.50812 2.936875,-2.93687 l 0.07937,-0.3175 h 1.243542 c 1.799167,0 3.254375,-1.48167 3.280833,-3.28083 v -2.67229 c 0,-1.27 -0.767291,-2.43417 -1.905,-2.96334 l -3.307291,-1.50812 -0.185209,-0.29104 -2.116666,-3.75709 c -0.05292,0 -0.105834,0.0265 -0.15875,0.0265 -0.3175,0.0529 -0.635,0.0529 -0.9525,-0.0265 l 2.672291,4.68313 c 0.05292,0.0794 0.105834,0.13229 0.211667,0.18521 l 3.439583,1.56104 c 0.79375,0.37041 1.322917,1.16416 1.349375,2.06375 v 3.14854 h -0.05292 c -0.211653,1.05833 -1.164153,1.85208 -2.248945,1.85208 h -1.164166 l -0.05292,-0.37042 c -0.291042,-2.30187 -2.407708,-3.91583 -4.709583,-3.62479 -1.905,0.23813 -3.386667,1.74625 -3.624792,3.62479 l -0.05292,0.37042 h -14.049369 l -0.05292,-0.37042 c -0.291038,-2.30187 -2.407704,-3.91583 -4.709579,-3.62479 -1.905,0.23813 -3.386667,1.74625 -3.624792,3.62479 l -0.05292,0.37042 h -0.687916 c -1.27,0 -2.275417,-1.03187 -2.301875,-2.30187 v -2.32834 c 0,-1.03187 0.687916,-1.905 1.693333,-2.19604 l 6.376458,-1.74625 c 0.105834,-0.0265 0.211667,-0.10583 0.264584,-0.18521 l 3.809999,-5.00062 c 0.608542,-0.79375 1.561042,-1.24354 2.54,-1.24354 h 9.154584 l 0.264583,-0.71438 c -0.396875,0.0265 -0.79375,-0.0794 -1.164167,-0.26458 h -8.281458 c -1.296458,0 -2.513542,0.60854 -3.307292,1.64042 l -3.704166,4.86833 -0.05292,0.0265 -6.164791,1.69333 c -1.402292,0.37042 -2.38125,1.66688 -2.407709,3.12208 v 2.32834 c 0,1.79916 1.481667,3.25437 3.280834,3.28083 h 0.767291 l 0.07937,0.3175 c 0.291042,1.08479 1.005417,1.98437 1.984375,2.54 0.978959,0.55562 2.116667,0.68792 3.201459,0.39687 1.402291,-0.39687 2.513541,-1.50812 2.910416,-2.93687 z m 18.441458,-4.36562 c 1.772709,0 3.227917,1.4552 3.227917,3.22791 0,0.84667 -0.3175,1.66688 -0.9525,2.27542 -0.608542,0.60854 -1.42875,0.9525 -2.275417,0.9525 -1.772708,0 -3.227916,-1.45521 -3.227916,-3.22792 0,-1.79916 1.455208,-3.22791 3.227916,-3.22791 z m -22.489583,6.45583 v 0 c -1.772708,0 -3.227916,-1.45521 -3.227916,-3.22792 0,-1.77271 1.455208,-3.22791 3.227916,-3.22791 1.772709,0 3.227917,1.4552 3.227917,3.22791 0,1.77271 -1.455208,3.20146 -3.227917,3.22792 z m 0,-0.15875 z m 14.313958,-27.305 c 1.031875,-0.84667 2.196042,-1.40229 3.4925,-1.71979 1.772709,-0.42334 3.360209,-0.23813 4.392084,0 l 0.132291,0.0265 0.687917,-1.82563 c 0.105833,-0.26458 0.396875,-0.39687 0.661458,-0.3175 0.264584,0.10583 0.396875,0.39688 0.3175,0.66146 l -0.846666,2.27542 c -0.105834,0.26458 -0.370417,0.39687 -0.635,0.3175 -1.42875,-0.42334 -6.402917,-1.42875 -9.604375,3.81 l -0.15875,0.26458 h 0.291041 c 0.07937,0 0.185209,0 0.264584,0 0.899583,0.0265 2.248958,0.37042 3.65125,1.87854 l 0.05292,0.0529 h 0.07937 c 0.661459,-0.10584 1.984375,-0.18521 3.360209,0.3175 1.402291,0.52916 2.328333,1.45521 2.778125,1.95791 l 0.05292,0.0529 h 0.07938 c 2.037292,-0.23812 3.307292,0.37042 3.995209,0.9525 0.07938,0.0529 0.132291,0.10584 0.211666,0.18521 l 0.211667,0.21167 0.05292,-0.29104 c 0.687916,-4.39208 -1.42875,-6.90563 -3.33375,-8.255 -0.105834,-0.0794 -0.185209,-0.18521 -0.211667,-0.34396 -0.02646,-0.13229 0,-0.26458 0.07938,-0.39687 0.07937,-0.10584 0.185208,-0.18521 0.343958,-0.21167 0.132292,-0.0265 0.264584,0 0.396875,0.0794 1.984375,1.4023 5.08,4.70959 3.413125,10.84792 -0.05292,0.13229 -0.132291,0.26458 -0.291041,0.3175 -0.05292,0.0265 -0.132292,0.0529 -0.211667,0.0529 -0.238125,0 -0.423333,-0.13229 -0.502708,-0.34396 0,-0.0265 -0.661459,-1.82562 -3.280834,-1.82562 -0.343958,0 -0.687916,0.0265 -1.084791,0.10583 -0.185209,0.0265 -0.396875,-0.0529 -0.502709,-0.21167 -0.105833,-0.13229 -1.031875,-1.32291 -2.54,-1.87854 -1.508125,-0.55562 -2.910416,-0.26458 -3.148541,-0.21167 v 0 c -0.185209,0.0529 -0.396875,0 -0.529167,-0.15875 -2.275417,-2.69875 -4.365625,-1.5875 -4.445,-1.53458 -0.185208,0.10583 -0.423333,0.0794 -0.608542,-0.0529 -0.15875,-0.15875 -0.211666,-0.39687 -0.105833,-0.60854 0.767292,-1.77271 1.825625,-3.175 3.042708,-4.18041 z m 0.714375,11.69458 -0.370416,1.03188 c -0.105834,0.3175 -0.105834,0.66146 0.02646,0.9525 0.132292,0.3175 0.396875,0.52916 0.714375,0.66146 0.3175,0.10583 0.661458,0.10583 0.9525,-0.0265 0.3175,-0.1323 0.529167,-0.39688 0.661458,-0.71438 l 1.957917,-5.29167 c 0.105833,-0.26458 0.396875,-0.39687 0.661458,-0.3175 0.264584,0.10584 0.396875,0.39688 0.3175,0.66146 l -1.957916,5.29167 c -0.211667,0.58208 -0.635,1.03187 -1.190625,1.29646 -0.555625,0.26458 -1.164167,0.29104 -1.74625,0.0794 -0.582084,-0.21167 -1.031875,-0.635 -1.296459,-1.19063 -0.264583,-0.55562 -0.291041,-1.16416 -0.07937,-1.74625 l 0.37041,-1.03187 c 0.105833,-0.26458 0.396875,-0.39687 0.661458,-0.3175 0.264584,0.10584 0.396875,0.39688 0.3175,0.66146 z"
       id="path310"
       style="fill:#000000;stroke-width:0.26458332" />
  </g>
</svg>
