<?xml version="1.0" encoding="utf-8"?>
<!-- Generator: Adobe Illustrator 22.1.0, SVG Export Plug-In . SVG Version: 6.00 Build 0)  -->
<svg version="1.1" id="Warstwa_1" xmlns="http://www.w3.org/2000/svg" xmlns:xlink="http://www.w3.org/1999/xlink" x="0px" y="0px"
	 viewBox="0 0 772.4 726.1" style="enable-background:new 0 0 772.4 726.1;" xml:space="preserve">
<style type="text/css">
	.st0{fill:#00FF57;}
	.st1{fill:#16191C;}
</style>
<polygon class="st0" points="191,0 40.1,266.7 112.5,726.2 772,726.2 772,220.3 772,219.3 772,1.2 "/>
<polyline class="st1" points="772,1.2 96.4,0 40.1,266.7 772,220.3 "/>
<title>bg-form</title>
<polyline class="st1" points="771.9,726.1 112.4,726.1 772.4,563.3 "/>
</svg>
