<?xml version="1.0" encoding="utf-8"?>
<!-- Generator: Adobe Illustrator 22.1.0, SVG Export Plug-In . SVG Version: 6.00 Build 0)  -->
<svg version="1.1" id="Warstwa_1" xmlns="http://www.w3.org/2000/svg" xmlns:xlink="http://www.w3.org/1999/xlink" x="0px" y="0px"
	 viewBox="0 0 772.4 726.1" style="enable-background:new 0 0 772.4 726.1;" xml:space="preserve">
<style type="text/css">
	.st0{fill:url(#SVGID_1_);}
	.st1{fill:#16191C;}
</style>
<linearGradient id="SVGID_1_" gradientUnits="userSpaceOnUse" x1="781.5742" y1="507.2602" x2="79.5741" y2="210.2602">
	<stop  offset="0" style="stop-color:#1A272B"/>
	<stop  offset="1" style="stop-color:#0E0F12"/>
</linearGradient>
<polygon class="st0" points="96.4,0 70.1,270.7 112.5,726.2 772,726.2 772,220.3 772,219.3 772,1.2 "/>
<polyline class="st1" points="772,1.2 96.4,0 70.1,270.7 772,220.3 "/>
<title>bg-form</title>
<polyline class="st1" points="771.9,726.1 112.4,726.1 772.4,563.3 "/>
</svg>
