<?xml version="1.0" encoding="utf-8"?>
<!-- Generator: Adobe Illustrator 22.1.0, SVG Export Plug-In . SVG Version: 6.00 Build 0)  -->
<svg version="1.1" id="Layer_1" xmlns="http://www.w3.org/2000/svg" xmlns:xlink="http://www.w3.org/1999/xlink" x="0px" y="0px"
	 viewBox="0 0 251.1 23.1" style="enable-background:new 0 0 251.1 23.1;" xml:space="preserve">
<style type="text/css">
	.st0{fill:#FFFFFF;}
	.st1{fill:url(#SVGID_1_);}
</style>
<title>logo</title>
<title>logo</title>
<path class="st0" d="M251.1,19c0,1.2-1.1,2.3-2.3,2.3c-1.3,0-2.3-1-2.3-2.3c0-1.2,1-2.3,2.3-2.3C250,16.8,251.1,17.7,251.1,19z
	 M250.6,19c0-1-0.8-1.8-1.9-1.8c-1.1,0-1.9,0.8-1.9,1.8s0.8,1.8,1.9,1.8C249.8,20.9,250.6,20,250.6,19z M248.9,17.9
	c0.5,0,0.8,0.3,0.8,0.7c0,0.4-0.3,0.6-0.7,0.6l0.7,0.8h-0.4l-0.7-0.8h-0.3V20h-0.4v-2.2h1V17.9z M248.3,18.2v0.7h0.6
	c0.3,0,0.5-0.1,0.5-0.4c0-0.2-0.2-0.4-0.5-0.4C248.9,18.2,248.3,18.2,248.3,18.2z M99.7,21.2c-5.1,0-6.6-2.8-6.4-6.4
	c0.1-1,0.1-1.7,0.4-2.8c1.3-5.2,3.2-8,10.4-8h10.2L113,8.5h-6.9c-2.9,0-4.3,1.2-5.1,3.8c-0.2,0.6-0.3,1.4-0.3,1.8
	c-0.1,1.7,0.8,2.5,3,2.5h7.3l-1.3,4.5L99.7,21.2L99.7,21.2z M130.2,4c3.8,0,5.5,1.8,5.3,4.5c0,0.4-0.1,0.9-0.2,1.3l-2.3,7.8
	c-0.7,2.3-2.1,3.6-5,3.6h-11c-2.9,0-4.2-1.7-4-4.2c0-0.6,0.2-1.6,0.4-2.3c0.9-3.3,2.2-4.4,6.1-4.4h8.7l0.1-0.3
	c0.1-0.2,0.1-0.3,0.1-0.4c0.1-0.8-0.6-1.3-1.7-1.3h-9.9l1.3-4.4L130.2,4L130.2,4z M122,14.4c-0.7,0-1.4,0.3-1.7,1
	c-0.1,0.2-0.1,0.4-0.1,0.6c0,0.5,0.3,0.9,0.9,0.9h3.6c1.1,0,1.5-0.3,1.8-1.3l0.4-1.2H122z M174.9,7.6c0.8-2.6,2.5-3.6,5-3.6H197
	c3.7,0,6,1.8,5.9,4.8c0,0.5-0.1,1.2-0.3,1.7l-3.2,10.7h-7c0,0,3.3-11,3.3-11.4c0.4-1.5-1.1-1.3-3.4-1.3l-3.8,12.7h-7l3.8-12.7H183
	c-1.1,0-1.5,0.3-1.8,1.3l-3.4,11.4h-7L174.9,7.6z M207.2,5.8h7l-4.6,15.4h-7L207.2,5.8z M207.7,3.8l1.1-3.8h7l-1.1,3.8H207.7z
	 M219.2,0h7L220,21.2h-7L219.2,0z M231.3,21.2c-4.6,0-6.6-1.6-6.4-5.3c0.1-1.2,0.3-2.3,0.8-4.1c2.3-7.4,4.6-8.1,12.9-8.1
	c5.9,0,8.9,0.8,8.7,4.7c-0.1,0.8-0.2,2-0.5,2.9c-0.6,2-1.7,3.3-4.2,3.3h-10.3c-0.1,0.3-0.1,0.5-0.1,0.7c-0.1,1.1,0.9,1.5,3,1.5h9.2
	l-1.3,4.4H231.3z M238.5,10.6c1.1,0,1.3-0.4,1.4-0.8c0-0.1,0.1-0.4,0.1-0.5c0.1-1-1.8-1.1-2.8-1.1c-2.1,0-3.3,0.3-3.9,2.4H238.5
	L238.5,10.6z M165.4,11.1l-4-1.5c-1.1-0.4-1.6-0.4-1.6-0.9c0-0.3,0.9-0.3,1.2-0.3h10.3l1.3-4.4h-1.2h-11.8h-10.5
	c-6.4,0-9.7,1.3-11.4,7.2l-3,10.1h7l2.4-8.2c0.8-2.9,2.4-4.5,5.7-4.5h3.5c-0.1,0.4-0.2,0.9-0.2,1.3c-0.1,2.3,1.2,3.3,3.7,4.1
	l3.4,1.2c0.8,0.3,2.1,0.6,2.1,1.1c0,0.3-0.5,0.4-0.7,0.4h-10.3l-1.3,4.6h13.2c3.6,0,5.4-1,6.3-4.2c0.1-0.5,0.2-0.9,0.3-1.4
	C169.8,13.1,168.1,12.1,165.4,11.1z"/>
<radialGradient id="SVGID_1_" cx="85.1962" cy="830.9382" r="85.4371" gradientTransform="matrix(1 0 0 1 0 -818)" gradientUnits="userSpaceOnUse">
	<stop  offset="0" style="stop-color:#00FF66"/>
	<stop  offset="1" style="stop-color:#00FF66;stop-opacity:0"/>
</radialGradient>
<path class="st1" d="M84.9,12.6c0,5.8-4.7,10.5-10.5,10.5H10.5C4.7,23.1,0,18.3,0,12.6v-0.1C0,6.6,4.7,1.9,10.5,1.9h63.9
	c5.8,0,10.5,4.7,10.5,10.5V12.6z"/>
</svg>
