<?xml version="1.0" encoding="utf-8"?>
<!-- Generator: Adobe Illustrator 22.1.0, SVG Export Plug-In . SVG Version: 6.00 Build 0)  -->
<svg version="1.1"
	 id="svg2" inkscape:version="0.92.2 2405546, 2018-03-11" sodipodi:docname="top-shape.svg" xmlns:cc="http://creativecommons.org/ns#" xmlns:dc="http://purl.org/dc/elements/1.1/" xmlns:inkscape="http://www.inkscape.org/namespaces/inkscape" xmlns:rdf="http://www.w3.org/1999/02/22-rdf-syntax-ns#" xmlns:sodipodi="http://sodipodi.sourceforge.net/DTD/sodipodi-0.dtd" xmlns:svg="http://www.w3.org/2000/svg"
	 xmlns="http://www.w3.org/2000/svg" xmlns:xlink="http://www.w3.org/1999/xlink" x="0px" y="0px" viewBox="0 0 356.3 151.7"
	 style="enable-background:new 0 0 356.3 151.7;" xml:space="preserve">
<style type="text/css">
	.st0{fill:#16191C;}
	.st1{fill:#223036;}
</style>
<sodipodi:namedview  bordercolor="#666666" borderopacity="1" gridtolerance="10" guidetolerance="10" id="namedview4" inkscape:current-layer="svg2" inkscape:cx="190.78761" inkscape:cy="-3.4050751" inkscape:pageopacity="0" inkscape:pageshadow="2" inkscape:window-height="713" inkscape:window-maximized="1" inkscape:window-width="1366" inkscape:window-x="0" inkscape:window-y="27" inkscape:zoom="32.227597" objecttolerance="10" pagecolor="#ffffff" showgrid="false">
	</sodipodi:namedview>
<path id="path14" inkscape:connector-curvature="0" sodipodi:nodetypes="cccc" class="st0" d="M-0.6,134.5l88.3-11l-87.9-26
	L-0.6,134.5z"/>
<path id="path821" inkscape:connector-curvature="0" sodipodi:nodetypes="ccccc" class="st1" d="M-0.5,102V-1.7l241.4,0.5
	l-48.3,152.9L-0.5,102z"/>
<path id="path825" inkscape:connector-curvature="0" sodipodi:nodetypes="ccccc" class="st0" d="M192.7,151.7l163.6-26.3L356-1.7
	L238.8-1.2L192.7,151.7z"/>
</svg>
